Fifo/Fifo.sim/sim_1/behav/xsim/simulate.log
Time resolution is 1 ps
Time: 0, clk: 0, rst: 1, wr_en: 0, rd_en: 0, data_in: 00, data_out: 00, full: 0, empty: 1, wr_pointer:     0, rd_pointer:     0, fifo_count:     0
Time: 5, clk: 1, rst: 1, wr_en: 0, rd_en: 0, data_in: 00, data_out: 00, full: 0, empty: 1, wr_pointer:     0, rd_pointer:     0, fifo_count:     0
Time: 10, clk: 0, rst: 0, wr_en: 0, rd_en: 0, data_in: 00, data_out: 00, full: 0, empty: 1, wr_pointer:     0, rd_pointer:     0, fifo_count:     0
Time: 15, clk: 1, rst: 0, wr_en: 0, rd_en: 0, data_in: 00, data_out: 00, full: 0, empty: 1, wr_pointer:     0, rd_pointer:     0, fifo_count:     0
Time: 20, clk: 0, rst: 0, wr_en: 0, rd_en: 0, data_in: 00, data_out: 00, full: 0, empty: 1, wr_pointer:     0, rd_pointer:     0, fifo_count:     0
Time: 25, clk: 1, rst: 0, wr_en: 1, rd_en: 0, data_in: 00, data_out: 00, full: 0, empty: 0, wr_pointer:     1, rd_pointer:     0, fifo_count:     1
Time: 30, clk: 0, rst: 0, wr_en: 1, rd_en: 0, data_in: 00, data_out: 00, full: 0, empty: 0, wr_pointer:     1, rd_pointer:     0, fifo_count:     1
Time: 35, clk: 1, rst: 0, wr_en: 1, rd_en: 0, data_in: 01, data_out: 00, full: 0, empty: 0, wr_pointer:     2, rd_pointer:     0, fifo_count:     2
Time: 40, clk: 0, rst: 0, wr_en: 1, rd_en: 0, data_in: 01, data_out: 00, full: 0, empty: 0, wr_pointer:     2, rd_pointer:     0, fifo_count:     2
Time: 45, clk: 1, rst: 0, wr_en: 1, rd_en: 0, data_in: 02, data_out: 00, full: 0, empty: 0, wr_pointer:     3, rd_pointer:     0, fifo_count:     3
Time: 50, clk: 0, rst: 0, wr_en: 1, rd_en: 0, data_in: 02, data_out: 00, full: 0, empty: 0, wr_pointer:     3, rd_pointer:     0, fifo_count:     3
Time: 55, clk: 1, rst: 0, wr_en: 1, rd_en: 0, data_in: 03, data_out: 00, full: 0, empty: 0, wr_pointer:     4, rd_pointer:     0, fifo_count:     4
Time: 60, clk: 0, rst: 0, wr_en: 1, rd_en: 0, data_in: 03, data_out: 00, full: 0, empty: 0, wr_pointer:     4, rd_pointer:     0, fifo_count:     4
Time: 65, clk: 1, rst: 0, wr_en: 1, rd_en: 0, data_in: 04, data_out: 00, full: 0, empty: 0, wr_pointer:     5, rd_pointer:     0, fifo_count:     5
Time: 70, clk: 0, rst: 0, wr_en: 1, rd_en: 0, data_in: 04, data_out: 00, full: 0, empty: 0, wr_pointer:     5, rd_pointer:     0, fifo_count:     5
Time: 75, clk: 1, rst: 0, wr_en: 1, rd_en: 0, data_in: 05, data_out: 00, full: 0, empty: 0, wr_pointer:     6, rd_pointer:     0, fifo_count:     6
Time: 80, clk: 0, rst: 0, wr_en: 1, rd_en: 0, data_in: 05, data_out: 00, full: 0, empty: 0, wr_pointer:     6, rd_pointer:     0, fifo_count:     6
Time: 85, clk: 1, rst: 0, wr_en: 1, rd_en: 0, data_in: 06, data_out: 00, full: 0, empty: 0, wr_pointer:     7, rd_pointer:     0, fifo_count:     7
Time: 90, clk: 0, rst: 0, wr_en: 1, rd_en: 0, data_in: 06, data_out: 00, full: 0, empty: 0, wr_pointer:     7, rd_pointer:     0, fifo_count:     7
Time: 95, clk: 1, rst: 0, wr_en: 1, rd_en: 0, data_in: 07, data_out: 00, full: 0, empty: 0, wr_pointer:     8, rd_pointer:     0, fifo_count:     8
Time: 100, clk: 0, rst: 0, wr_en: 1, rd_en: 0, data_in: 07, data_out: 00, full: 0, empty: 0, wr_pointer:     8, rd_pointer:     0, fifo_count:     8
Time: 105, clk: 1, rst: 0, wr_en: 1, rd_en: 0, data_in: 08, data_out: 00, full: 0, empty: 0, wr_pointer:     9, rd_pointer:     0, fifo_count:     9
Time: 110, clk: 0, rst: 0, wr_en: 1, rd_en: 0, data_in: 08, data_out: 00, full: 0, empty: 0, wr_pointer:     9, rd_pointer:     0, fifo_count:     9
Time: 115, clk: 1, rst: 0, wr_en: 1, rd_en: 0, data_in: 09, data_out: 00, full: 0, empty: 0, wr_pointer:    10, rd_pointer:     0, fifo_count:    10
Time: 120, clk: 0, rst: 0, wr_en: 1, rd_en: 0, data_in: 09, data_out: 00, full: 0, empty: 0, wr_pointer:    10, rd_pointer:     0, fifo_count:    10
Time: 125, clk: 1, rst: 0, wr_en: 1, rd_en: 0, data_in: 0a, data_out: 00, full: 0, empty: 0, wr_pointer:    11, rd_pointer:     0, fifo_count:    11
Time: 130, clk: 0, rst: 0, wr_en: 1, rd_en: 0, data_in: 0a, data_out: 00, full: 0, empty: 0, wr_pointer:    11, rd_pointer:     0, fifo_count:    11
Time: 135, clk: 1, rst: 0, wr_en: 1, rd_en: 0, data_in: 0b, data_out: 00, full: 0, empty: 0, wr_pointer:    12, rd_pointer:     0, fifo_count:    12
Time: 140, clk: 0, rst: 0, wr_en: 1, rd_en: 0, data_in: 0b, data_out: 00, full: 0, empty: 0, wr_pointer:    12, rd_pointer:     0, fifo_count:    12
Time: 145, clk: 1, rst: 0, wr_en: 1, rd_en: 0, data_in: 0c, data_out: 00, full: 0, empty: 0, wr_pointer:    13, rd_pointer:     0, fifo_count:    13
Time: 150, clk: 0, rst: 0, wr_en: 1, rd_en: 0, data_in: 0c, data_out: 00, full: 0, empty: 0, wr_pointer:    13, rd_pointer:     0, fifo_count:    13
Time: 155, clk: 1, rst: 0, wr_en: 1, rd_en: 0, data_in: 0d, data_out: 00, full: 0, empty: 0, wr_pointer:    14, rd_pointer:     0, fifo_count:    14
Time: 160, clk: 0, rst: 0, wr_en: 1, rd_en: 0, data_in: 0d, data_out: 00, full: 0, empty: 0, wr_pointer:    14, rd_pointer:     0, fifo_count:    14
Time: 165, clk: 1, rst: 0, wr_en: 1, rd_en: 0, data_in: 0e, data_out: 00, full: 1, empty: 0, wr_pointer:    15, rd_pointer:     0, fifo_count:    15
Time: 170, clk: 0, rst: 0, wr_en: 1, rd_en: 0, data_in: 0e, data_out: 00, full: 1, empty: 0, wr_pointer:    15, rd_pointer:     0, fifo_count:    15
Time: 175, clk: 1, rst: 0, wr_en: 1, rd_en: 0, data_in: 0f, data_out: 00, full: 1, empty: 0, wr_pointer:    15, rd_pointer:     0, fifo_count:    15
Time: 180, clk: 0, rst: 0, wr_en: 1, rd_en: 0, data_in: 0f, data_out: 00, full: 1, empty: 0, wr_pointer:    15, rd_pointer:     0, fifo_count:    15
Time: 185, clk: 1, rst: 0, wr_en: 0, rd_en: 0, data_in: 10, data_out: 00, full: 1, empty: 0, wr_pointer:    15, rd_pointer:     0, fifo_count:    15
Time: 190, clk: 0, rst: 0, wr_en: 0, rd_en: 0, data_in: 10, data_out: 00, full: 1, empty: 0, wr_pointer:    15, rd_pointer:     0, fifo_count:    15
Time: 195, clk: 1, rst: 0, wr_en: 0, rd_en: 1, data_in: 10, data_out: 00, full: 0, empty: 0, wr_pointer:    15, rd_pointer:     1, fifo_count:    14
Time: 200, clk: 0, rst: 0, wr_en: 0, rd_en: 1, data_in: 10, data_out: 00, full: 0, empty: 0, wr_pointer:    15, rd_pointer:     1, fifo_count:    14
Time: 205, clk: 1, rst: 0, wr_en: 0, rd_en: 1, data_in: 10, data_out: 01, full: 0, empty: 0, wr_pointer:    15, rd_pointer:     2, fifo_count:    13
Time: 210, clk: 0, rst: 0, wr_en: 0, rd_en: 1, data_in: 10, data_out: 01, full: 0, empty: 0, wr_pointer:    15, rd_pointer:     2, fifo_count:    13
Time: 215, clk: 1, rst: 0, wr_en: 0, rd_en: 1, data_in: 10, data_out: 02, full: 0, empty: 0, wr_pointer:    15, rd_pointer:     3, fifo_count:    12
Time: 220, clk: 0, rst: 0, wr_en: 0, rd_en: 1, data_in: 10, data_out: 02, full: 0, empty: 0, wr_pointer:    15, rd_pointer:     3, fifo_count:    12
Time: 225, clk: 1, rst: 0, wr_en: 0, rd_en: 1, data_in: 10, data_out: 03, full: 0, empty: 0, wr_pointer:    15, rd_pointer:     4, fifo_count:    11
Time: 230, clk: 0, rst: 0, wr_en: 0, rd_en: 1, data_in: 10, data_out: 03, full: 0, empty: 0, wr_pointer:    15, rd_pointer:     4, fifo_count:    11
Time: 235, clk: 1, rst: 0, wr_en: 0, rd_en: 1, data_in: 10, data_out: 04, full: 0, empty: 0, wr_pointer:    15, rd_pointer:     5, fifo_count:    10
Time: 240, clk: 0, rst: 0, wr_en: 0, rd_en: 1, data_in: 10, data_out: 04, full: 0, empty: 0, wr_pointer:    15, rd_pointer:     5, fifo_count:    10
Time: 245, clk: 1, rst: 0, wr_en: 0, rd_en: 1, data_in: 10, data_out: 05, full: 0, empty: 0, wr_pointer:    15, rd_pointer:     6, fifo_count:     9
Time: 250, clk: 0, rst: 0, wr_en: 0, rd_en: 1, data_in: 10, data_out: 05, full: 0, empty: 0, wr_pointer:    15, rd_pointer:     6, fifo_count:     9
Time: 255, clk: 1, rst: 0, wr_en: 0, rd_en: 1, data_in: 10, data_out: 06, full: 0, empty: 0, wr_pointer:    15, rd_pointer:     7, fifo_count:     8
Time: 260, clk: 0, rst: 0, wr_en: 0, rd_en: 1, data_in: 10, data_out: 06, full: 0, empty: 0, wr_pointer:    15, rd_pointer:     7, fifo_count:     8
Time: 265, clk: 1, rst: 0, wr_en: 0, rd_en: 1, data_in: 10, data_out: 07, full: 0, empty: 0, wr_pointer:    15, rd_pointer:     8, fifo_count:     7
Time: 270, clk: 0, rst: 0, wr_en: 0, rd_en: 1, data_in: 10, data_out: 07, full: 0, empty: 0, wr_pointer:    15, rd_pointer:     8, fifo_count:     7
Time: 275, clk: 1, rst: 0, wr_en: 0, rd_en: 1, data_in: 10, data_out: 08, full: 0, empty: 0, wr_pointer:    15, rd_pointer:     9, fifo_count:     6
Time: 280, clk: 0, rst: 0, wr_en: 0, rd_en: 1, data_in: 10, data_out: 08, full: 0, empty: 0, wr_pointer:    15, rd_pointer:     9, fifo_count:     6
Time: 285, clk: 1, rst: 0, wr_en: 0, rd_en: 1, data_in: 10, data_out: 09, full: 0, empty: 0, wr_pointer:    15, rd_pointer:    10, fifo_count:     5
Time: 290, clk: 0, rst: 0, wr_en: 0, rd_en: 1, data_in: 10, data_out: 09, full: 0, empty: 0, wr_pointer:    15, rd_pointer:    10, fifo_count:     5
Time: 295, clk: 1, rst: 0, wr_en: 0, rd_en: 1, data_in: 10, data_out: 0a, full: 0, empty: 0, wr_pointer:    15, rd_pointer:    11, fifo_count:     4
Time: 300, clk: 0, rst: 0, wr_en: 0, rd_en: 1, data_in: 10, data_out: 0a, full: 0, empty: 0, wr_pointer:    15, rd_pointer:    11, fifo_count:     4
Time: 305, clk: 1, rst: 0, wr_en: 0, rd_en: 1, data_in: 10, data_out: 0b, full: 0, empty: 0, wr_pointer:    15, rd_pointer:    12, fifo_count:     3
Time: 310, clk: 0, rst: 0, wr_en: 0, rd_en: 1, data_in: 10, data_out: 0b, full: 0, empty: 0, wr_pointer:    15, rd_pointer:    12, fifo_count:     3
Time: 315, clk: 1, rst: 0, wr_en: 0, rd_en: 1, data_in: 10, data_out: 0c, full: 0, empty: 0, wr_pointer:    15, rd_pointer:    13, fifo_count:     2
Time: 320, clk: 0, rst: 0, wr_en: 0, rd_en: 1, data_in: 10, data_out: 0c, full: 0, empty: 0, wr_pointer:    15, rd_pointer:    13, fifo_count:     2
Time: 325, clk: 1, rst: 0, wr_en: 0, rd_en: 1, data_in: 10, data_out: 0d, full: 0, empty: 0, wr_pointer:    15, rd_pointer:    14, fifo_count:     1
Time: 330, clk: 0, rst: 0, wr_en: 0, rd_en: 1, data_in: 10, data_out: 0d, full: 0, empty: 0, wr_pointer:    15, rd_pointer:    14, fifo_count:     1
Time: 335, clk: 1, rst: 0, wr_en: 0, rd_en: 1, data_in: 10, data_out: 0e, full: 0, empty: 1, wr_pointer:    15, rd_pointer:    15, fifo_count:     0
Time: 340, clk: 0, rst: 0, wr_en: 0, rd_en: 1, data_in: 10, data_out: 0e, full: 0, empty: 1, wr_pointer:    15, rd_pointer:    15, fifo_count:     0
Time: 345, clk: 1, rst: 0, wr_en: 0, rd_en: 1, data_in: 10, data_out: 0e, full: 0, empty: 1, wr_pointer:    15, rd_pointer:    15, fifo_count:     0
Time: 350, clk: 0, rst: 0, wr_en: 0, rd_en: 1, data_in: 10, data_out: 0e, full: 0, empty: 1, wr_pointer:    15, rd_pointer:    15, fifo_count:     0
Time: 355, clk: 1, rst: 0, wr_en: 0, rd_en: 1, data_in: 10, data_out: 0e, full: 0, empty: 1, wr_pointer:    15, rd_pointer:    15, fifo_count:     0
Time: 360, clk: 0, rst: 0, wr_en: 0, rd_en: 1, data_in: 10, data_out: 0e, full: 0, empty: 1, wr_pointer:    15, rd_pointer:    15, fifo_count:     0
Time: 365, clk: 1, rst: 0, wr_en: 0, rd_en: 0, data_in: 10, data_out: 0e, full: 0, empty: 1, wr_pointer:    15, rd_pointer:    15, fifo_count:     0
Time: 370, clk: 0, rst: 0, wr_en: 0, rd_en: 0, data_in: 10, data_out: 0e, full: 0, empty: 1, wr_pointer:    15, rd_pointer:    15, fifo_count:     0
Time: 375, clk: 1, rst: 1, wr_en: 0, rd_en: 0, data_in: 10, data_out: 00, full: 0, empty: 1, wr_pointer:     0, rd_pointer:     0, fifo_count:     0
Time: 380, clk: 0, rst: 1, wr_en: 0, rd_en: 0, data_in: 10, data_out: 00, full: 0, empty: 1, wr_pointer:     0, rd_pointer:     0, fifo_count:     0
Time: 385, clk: 1, rst: 0, wr_en: 0, rd_en: 0, data_in: 10, data_out: 00, full: 0, empty: 1, wr_pointer:     0, rd_pointer:     0, fifo_count:     0
Time: 390, clk: 0, rst: 0, wr_en: 0, rd_en: 0, data_in: 10, data_out: 00, full: 0, empty: 1, wr_pointer:     0, rd_pointer:     0, fifo_count:     0
$finish called at time : 395 ns : File "C:/Users/mayan/OneDrive/Desktop/project/Fifo/Fifo.srcs/sim_1/new/tb.v" Line 85
